module github.com/hashicorp/vault-plugin-auth-jwt

go 1.14

require (
	github.com/go-test/deep v1.0.8
	github.com/hashicorp/cap v0.1.1
	github.com/hashicorp/errwrap v1.1.0
	github.com/hashicorp/go-cleanhttp v0.5.2
	github.com/hashicorp/go-hclog v1.0.0
	github.com/hashicorp/go-secure-stdlib/base62 v0.1.2
	github.com/hashicorp/go-secure-stdlib/strutil v0.1.1
	github.com/hashicorp/go-sockaddr v1.0.2
	github.com/hashicorp/vault/api v1.3.0
	github.com/hashicorp/vault/sdk v0.3.0
	github.com/hashicorp/yamux v0.0.0-20181012175058-2f1d1f20f75d // indirect
	github.com/mitchellh/mapstructure v1.4.2
	github.com/mitchellh/pointerstructure v1.2.0
	github.com/patrickmn/go-cache v2.1.0+incompatible
	github.com/ryanuber/go-glob v1.0.0
	github.com/stretchr/testify v1.7.0
	golang.org/x/oauth2 v0.0.0-20220524215830-622c5d57e401
	golang.org/x/sync v0.0.0-20220601150217-0de741cfad7f
	google.golang.org/api v0.83.0
	gopkg.in/square/go-jose.v2 v2.6.0
)
